Introduction to R
…
Data manipulation with dplyr: Computing summary statistics 2

# mean temperature by year
data_cli_new %>% 
    group_by(year) %>% # now data is grouped by year
    summarise(mean_temp = mean(temp, na.rm = TRUE), .groups = "drop")

# A tibble: 25 × 2
   year  mean_temp
   <chr>     <dbl>
 1 2000       10.8
 2 2001       10.3
 3 2002       10.7
 4 2003       10.5
 5 2004       10.3
 6 2005       10.6
 7 2006       11.1
 8 2007       11.1
 9 2008       10.4
10 2009       10.4
# ℹ 15 more rows

Data manipulation with dplyr: Computing summary statistics 3

# mean temperature by year and city
data_cli_new %>% 
    group_by(year, location) %>% # now data is grouped by city and year
    summarise(mean_temp = mean(temp, na.rm = TRUE), .groups = "drop")

# A tibble: 275 × 3
   year  location    mean_temp
   <chr> <fct>           <dbl>
 1 2000  DE BILT          10.9
 2 2000  DEELEN           10.5
 3 2000  EELDE            10.3
 4 2000  EINDHOVEN        11.1
 5 2000  GILZE RIJEN      10.9
 6 2000  LELYSTAD         10.6
 7 2000  MAASTRICHT       11.2
 8 2000  ROTTERDAM        11.1
 9 2000  SCHIPHOL         11.0
10 2000  TWENTHE          10.6
# ℹ 265 more rows
…
